Date,Open,High,Low,Close,Adj Close,Volume
2010-12-31,146.729996,147.070007,145.960007,146.759995,120.873306,2969800
2011-01-03,147.210007,148.199997,147.139999,147.479996,121.466309,4603800
2011-01-04,147.559998,148.220001,146.639999,147.639999,121.598083,5060100
2011-01-05,147.339996,147.479996,146.729996,147.050003,121.112152,4657400
2011-01-06,147.130005,148.789993,146.820007,148.660004,122.438156,5029200
2011-01-07,148.789993,148.860001,146.940002,147.929993,121.836937,4135700
2011-01-10,147.580002,148.059998,147.229996,147.639999,121.598083,3633400
2011-01-11,148.199997,148.350006,146.750000,147.279999,121.301605,4163600
2011-01-12,147.990005,149.289993,147.669998,149.100006,122.800537,4091500
2011-01-13,149.240005,149.289993,148.250000,148.820007,122.569954,3445800
2011-01-14,148.889999,150.000000,148.470001,150.000000,123.541763,4544200
2011-01-18,149.820007,151.460007,149.380005,150.649994,124.077148,9176900
2011-01-19,153.259995,156.130005,152.830002,155.690002,128.228149,12141000
2011-01-20,154.529999,155.960007,154.449997,155.800003,128.318741,7439900
2011-01-21,156.399994,156.779999,154.960007,155.500000,128.071716,7009000
2011-01-24,155.419998,159.789993,155.330002,159.630005,131.473190,7285100
2011-01-25,159.210007,164.350006,159.000000,161.440002,132.963928,8260800
2011-01-26,161.669998,161.899994,160.419998,161.039993,132.634506,5353100
2011-01-27,161.429993,162.179993,160.860001,161.070007,132.659210,4878300
2011-01-28,161.050003,161.919998,158.669998,159.210007,131.127274,6725600
2011-01-31,159.179993,162.000000,158.679993,162.000000,133.425140,7197200
2011-02-01,162.110001,163.940002,162.000000,163.559998,134.710068,5831300
2011-02-02,163.399994,163.600006,162.610001,163.300003,134.495880,3904000
2011-02-03,163.160004,164.199997,162.809998,163.529999,134.685272,4683400
2011-02-04,163.479996,164.139999,163.220001,164.000000,135.072388,3755200
2011-02-07,164.080002,164.990005,164.020004,164.820007,135.747726,4928100
2011-02-08,164.820007,166.250000,164.320007,166.050003,137.302277,5612600
2011-02-09,165.619995,165.970001,164.100006,164.649994,136.144653,4633600
2011-02-10,163.899994,165.000000,163.179993,164.089996,135.681595,5737800
2011-02-11,163.979996,165.009995,163.309998,163.850006,135.483154,5185200
2011-02-14,164.179993,164.380005,162.850006,163.220001,134.962189,4129800
2011-02-15,162.889999,163.570007,162.520004,162.839996,134.648010,3768700
2011-02-16,163.330002,163.600006,162.750000,163.399994,135.111038,3216000
2011-02-17,163.300003,164.669998,162.850006,164.240005,135.805618,3230500
2011-02-18,164.460007,164.839996,164.100006,164.839996,136.301758,4245000
2011-02-22,163.570007,164.259995,161.779999,161.949997,133.912064,5209300
2011-02-23,161.809998,162.679993,160.139999,160.179993,132.448502,5998100
2011-02-24,159.630005,161.270004,159.029999,160.770004,132.936340,5707500
2011-02-25,161.059998,162.339996,160.860001,162.279999,134.184921,4518400
2011-02-28,162.360001,162.990005,161.240005,161.880005,133.854218,4773000
2011-03-01,163.149994,163.149994,159.880005,159.970001,132.274872,4382800
2011-03-02,159.429993,161.110001,159.410004,160.160004,132.431992,3413000
2011-03-03,161.419998,164.000000,161.270004,163.479996,135.177200,4057800
2011-03-04,163.399994,164.309998,160.649994,161.830002,133.812897,4910700
2011-03-07,161.600006,162.979996,158.850006,159.929993,132.241806,5312000
2011-03-08,159.699997,163.429993,159.210007,162.279999,134.184921,5384800
2011-03-09,163.470001,167.720001,163.279999,165.860001,137.145142,9086600
2011-03-10,164.639999,164.669998,161.380005,162.020004,133.969955,7041400
2011-03-11,162.399994,163.240005,160.839996,162.429993,134.308975,4271000
2011-03-14,161.160004,161.979996,160.089996,161.389999,133.449005,4300500
2011-03-15,157.350006,159.639999,156.880005,159.020004,131.489365,6475800
2011-03-16,156.520004,156.979996,151.710007,153.000000,126.511559,12195300
2011-03-17,154.000000,154.500000,152.699997,154.179993,127.487244,7376400
2011-03-18,156.500000,156.949997,154.320007,155.889999,128.901276,11450000
2011-03-21,157.639999,159.630005,157.070007,157.679993,130.381302,5784000
2011-03-22,158.559998,158.610001,157.520004,158.000000,130.645905,4311400
2011-03-23,158.000000,160.080002,157.529999,159.529999,131.911041,4782500
2011-03-24,160.229996,160.710007,158.839996,160.039993,132.332779,5145800
2011-03-25,160.979996,162.740005,160.759995,162.179993,134.102249,5348100
2011-03-28,161.539993,162.580002,161.119995,161.369995,133.432495,3972800
2011-03-29,161.339996,163.089996,161.149994,162.880005,134.681076,3456700
2011-03-30,163.550003,163.990005,163.020004,163.600006,135.276382,3394100
2011-03-31,163.399994,164.059998,163.070007,163.070007,134.838196,3860800
2011-04-01,163.699997,164.419998,163.039993,164.270004,135.830460,4381900
2011-04-04,164.419998,164.729996,163.580002,164.250000,135.813873,3225100
2011-04-05,163.809998,164.699997,163.619995,163.990005,135.598877,3612000
2011-04-06,164.339996,164.750000,163.809998,164.039993,135.640259,3774800
2011-04-07,164.100006,164.550003,163.279999,164.380005,135.921432,3666700
2011-04-08,164.350006,164.380005,163.160004,164.050003,135.648499,3324100
2011-04-11,163.440002,164.000000,163.110001,163.949997,135.565826,4139000
2011-04-12,163.360001,163.770004,162.300003,163.250000,134.987000,3860600
2011-04-13,163.970001,164.929993,163.660004,163.949997,135.565826,4181900
2011-04-14,163.839996,165.360001,163.160004,164.970001,136.409256,4699100
2011-04-15,165.000000,166.339996,164.869995,166.210007,137.434570,5287400
2011-04-18,164.639999,166.160004,162.860001,165.940002,137.211273,6160700
2011-04-19,165.710007,166.380005,164.440002,165.399994,136.764801,6547100
2011-04-20,163.100006,165.889999,162.190002,164.750000,136.227325,10891800
2011-04-21,165.630005,168.449997,164.860001,168.279999,139.146133,6158400
2011-04-25,167.649994,168.770004,167.229996,167.669998,138.641815,3583800
2011-04-26,167.990005,169.199997,167.399994,168.490005,139.319855,7300000
2011-04-27,168.610001,170.589996,168.460007,170.369995,140.874344,5299700
2011-04-28,169.990005,171.380005,169.699997,170.779999,141.213394,5087700
2011-04-29,171.100006,173.000000,170.479996,170.580002,141.047989,5587700
2011-05-02,172.110001,173.539993,171.490005,172.149994,142.346222,5396200
2011-05-03,172.000000,173.479996,171.229996,172.869995,142.941528,5007700
2011-05-04,172.360001,172.619995,169.589996,170.619995,141.081070,6890300
2011-05-05,170.470001,170.869995,167.500000,168.460007,139.295013,7332000
2011-05-06,169.029999,170.149994,168.240005,168.889999,140.275085,4839400
2011-05-09,168.389999,169.850006,168.309998,169.100006,140.449524,3594800
2011-05-10,169.250000,170.899994,169.220001,170.380005,141.512634,4934800
2011-05-11,170.300003,170.520004,167.820007,169.500000,140.781769,4663200
2011-05-12,169.649994,172.770004,168.649994,172.240005,143.057495,5138500
2011-05-13,171.699997,172.149994,169.440002,169.919998,141.130569,5167400
2011-05-16,169.809998,170.639999,168.309998,168.860001,140.250198,4662200
2011-05-17,167.850006,171.410004,166.529999,170.500000,141.612320,8773200
2011-05-18,170.100006,171.190002,169.460007,170.440002,141.562515,4154300
2011-05-19,170.860001,171.399994,169.320007,170.589996,141.687073,3538300
2011-05-20,170.399994,171.149994,169.380005,170.160004,141.329910,4869900
2011-05-23,168.580002,168.690002,167.070007,168.259995,139.751846,5144000
2011-05-24,168.500000,168.669998,167.509995,167.990005,139.527588,4643600
2011-05-25,167.630005,168.399994,167.509995,167.750000,139.328278,3882100
2011-05-26,167.460007,167.500000,165.899994,167.179993,138.854858,5771300
2011-05-27,167.910004,168.470001,167.000000,167.500000,139.120605,3277600
2011-05-31,168.440002,169.889999,167.820007,168.929993,140.308319,9123400
2011-06-01,168.899994,169.580002,166.500000,166.559998,138.339859,5134600
2011-06-02,166.440002,167.100006,165.710007,166.089996,137.949493,3854100
2011-06-03,164.300003,165.889999,164.130005,165.050003,137.085663,5230500
2011-06-06,164.759995,165.580002,164.270004,164.750000,136.836533,3619700
2011-06-07,165.110001,165.240005,163.610001,163.690002,135.956161,4187000
2011-06-08,163.270004,164.850006,163.259995,164.339996,136.496017,3850800
2011-06-09,165.009995,165.960007,164.759995,164.839996,136.911285,4299800
2011-06-10,164.570007,164.839996,162.869995,163.179993,135.532516,4683300
2011-06-13,164.440002,164.460007,162.729996,163.169998,135.524246,5099200
2011-06-14,163.869995,164.570007,163.649994,164.119995,136.313263,7050000
2011-06-15,162.750000,163.410004,161.520004,162.330002,134.826553,5225600
2011-06-16,162.059998,163.630005,161.779999,162.669998,135.108948,4861100
2011-06-17,164.240005,165.100006,163.580002,164.440002,136.579071,7149700
2011-06-20,163.699997,165.610001,163.589996,165.020004,137.060822,3956100
2011-06-21,165.199997,166.750000,164.000000,166.220001,138.057465,5387300
2011-06-22,165.589996,166.809998,165.100006,165.679993,137.608948,3960500
2011-06-23,164.059998,166.729996,163.800003,166.119995,137.974411,5271500
2011-06-24,165.850006,165.940002,164.570007,165.070007,137.102371,4402600
2011-06-27,165.740005,168.240005,165.210007,167.619995,139.220276,4446700
2011-06-28,168.330002,170.699997,168.009995,170.009995,141.205368,4850000
2011-06-29,170.610001,170.860001,169.820007,170.539993,141.645538,3817100
2011-06-30,171.110001,172.449997,170.750000,171.550003,142.484436,5105200
2011-07-01,171.610001,174.649994,171.490005,174.539993,144.967819,5181700
2011-07-05,173.520004,175.429993,173.520004,175.429993,145.707031,4586500
2011-07-06,175.190002,177.770004,175.089996,177.710007,147.600739,5885900
2011-07-07,176.779999,177.270004,176.119995,176.479996,146.579117,5905600
2011-07-08,175.490005,176.490005,175.009995,176.490005,146.587448,4399900
2011-07-11,174.899994,176.149994,174.610001,174.990005,145.341599,4766500
2011-07-12,174.929993,175.369995,173.889999,174.050003,144.560883,5036800
2011-07-13,174.899994,176.320007,174.000000,174.320007,144.785049,4074800
2011-07-14,174.399994,176.100006,173.839996,174.229996,144.710342,4613100
2011-07-15,175.080002,175.940002,174.070007,175.539993,145.798401,5347100
2011-07-18,174.729996,176.460007,173.580002,175.279999,145.582458,8879700
2011-07-19,178.740005,185.210007,178.649994,185.210007,153.830017,13245600
2011-07-20,183.839996,184.419998,183.000000,183.649994,152.534302,5901100
2011-07-21,183.589996,185.500000,182.899994,184.899994,153.572540,4958400
2011-07-22,184.639999,185.630005,184.259995,185.179993,153.805054,4516100
2011-07-25,183.889999,184.960007,183.279999,183.699997,152.575821,4987000
2011-07-26,182.940002,184.050003,182.649994,182.929993,151.936310,4356200
2011-07-27,182.009995,182.910004,180.929993,181.350006,150.624039,5806800
2011-07-28,181.059998,183.270004,180.880005,181.800003,150.997772,4478800
2011-07-29,180.259995,183.429993,179.729996,181.850006,151.039307,6665600
2011-08-01,182.600006,183.690002,178.500000,180.750000,150.125641,5842700
2011-08-02,179.949997,182.289993,177.860001,178.050003,147.883148,5770400
2011-08-03,177.669998,179.229996,175.410004,178.830002,148.530960,6722000
2011-08-04,176.500000,177.919998,171.179993,171.479996,142.426285,11022300
2011-08-05,172.100006,174.220001,166.520004,172.979996,143.672150,11871800
2011-08-08,168.830002,172.610001,166.000000,166.220001,138.658661,15804900
2011-08-09,167.460007,171.050003,162.000000,170.610001,142.320709,12517600
2011-08-10,168.179993,169.229996,161.850006,162.539993,135.588806,13993600
2011-08-11,164.100006,168.770004,162.940002,166.729996,139.084122,9175600
2011-08-12,168.500000,169.380005,165.830002,168.199997,140.310318,5187000
2011-08-15,171.320007,174.000000,170.389999,172.990005,144.306107,7645400
2011-08-16,172.190002,172.190002,169.000000,171.240005,142.846268,5585400
2011-08-17,171.570007,172.990005,169.889999,171.479996,143.046524,5129700
2011-08-18,166.320007,166.460007,160.160004,163.830002,136.664963,15082600
2011-08-19,162.169998,163.940002,157.130005,157.539993,131.417923,14068600
2011-08-22,161.350006,161.679993,157.619995,158.979996,132.619186,7249100
2011-08-23,160.649994,164.589996,159.529999,164.320007,137.073715,6923300
2011-08-24,164.130005,166.830002,163.350006,166.759995,139.109131,6427000
2011-08-25,167.520004,168.529999,164.850006,165.580002,138.124786,6751600
2011-08-26,164.850006,169.330002,163.279999,169.139999,141.094513,6438200
2011-08-29,170.580002,172.720001,170.360001,172.619995,143.997437,5293400
2011-08-30,172.059998,173.509995,170.880005,172.509995,143.905685,4477700
2011-08-31,173.289993,173.720001,170.710007,171.910004,143.405182,6074200
2011-09-01,172.710007,173.679993,170.119995,170.330002,142.087189,5463900
2011-09-02,167.690002,168.929993,166.000000,166.979996,139.292664,4979100
2011-09-06,163.059998,165.550003,162.199997,165.110001,137.732697,5761200
2011-09-07,167.279999,167.899994,166.160004,167.309998,139.567947,6796600
2011-09-08,167.000000,169.580002,165.100006,165.250000,137.849503,6027200
2011-09-09,164.570007,165.190002,160.809998,161.369995,134.612823,6743900
2011-09-12,160.039993,162.440002,158.759995,162.419998,135.488785,5247200
2011-09-13,163.639999,163.919998,161.539993,163.429993,136.331268,4723800
2011-09-14,164.009995,169.660004,161.990005,167.240005,139.509537,6980700
2011-09-15,168.639999,170.160004,167.229996,170.089996,141.886963,5464400
2011-09-16,171.330002,172.990005,169.740005,172.990005,144.306107,11048100
2011-09-19,169.500000,173.869995,169.429993,173.130005,144.422913,4755600
2011-09-20,173.570007,177.429993,172.699997,174.720001,145.749283,6209600
2011-09-21,175.000000,177.669998,172.619995,173.020004,144.331131,7043100
2011-09-22,168.330002,169.970001,166.500000,168.619995,140.660675,8195600
2011-09-23,166.990005,169.539993,165.759995,169.339996,141.261307,5586600
2011-09-26,170.960007,174.699997,169.860001,174.509995,145.574051,6745700
2011-09-27,176.820007,179.619995,176.429993,177.710007,148.243500,7638800
2011-09-28,177.970001,180.750000,177.080002,177.550003,148.110016,7732200
2011-09-29,179.690002,180.910004,175.529999,179.169998,149.461395,6944300
2011-09-30,176.009995,178.270004,174.750000,174.869995,145.874374,7807400
2011-10-03,174.360001,177.919998,173.039993,173.289993,144.556366,9042600
2011-10-04,171.539993,175.070007,168.880005,174.740005,145.765976,9200000
2011-10-05,174.570007,177.300003,172.679993,176.850006,147.526047,5851700
2011-10-06,176.809998,181.990005,175.660004,181.690002,151.563538,7180900
2011-10-07,182.320007,183.720001,181.639999,182.389999,152.147491,6842600
2011-10-10,183.000000,186.630005,182.899994,186.619995,155.676102,5784800
2011-10-11,184.589996,186.000000,184.110001,185.000000,154.324722,5330500
2011-10-12,186.080002,188.000000,185.649994,186.119995,155.259003,5338200
2011-10-13,184.970001,187.500000,184.500000,186.820007,155.842880,4399200
2011-10-14,188.190002,190.529999,187.729996,190.529999,158.937775,5368200
2011-10-17,189.710007,190.160004,185.899994,186.589996,155.651062,8790300
2011-10-18,178.000000,179.380005,176.250000,178.899994,149.236160,15729400
2011-10-19,179.679993,179.809998,177.009995,177.389999,147.976517,6708300
2011-10-20,178.130005,179.240005,176.169998,177.250000,147.859772,7513800
2011-10-21,179.110001,181.669998,178.750000,181.630005,151.513519,8054200
2011-10-24,181.509995,183.389999,180.619995,182.250000,152.030670,5890600
2011-10-25,181.660004,182.970001,180.009995,180.360001,150.454041,5373100
2011-10-26,181.740005,182.279999,179.029999,181.970001,151.797150,5387700
2011-10-27,184.990005,187.000000,183.179993,185.880005,155.058792,7057800
2011-10-28,185.570007,188.070007,185.279999,187.449997,156.368469,5009800
2011-10-31,185.589996,186.910004,184.630005,184.630005,154.016052,4710000
2011-11-01,181.550003,183.259995,180.740005,181.350006,151.279968,5881200
2011-11-02,184.000000,185.250000,183.029999,183.919998,153.423813,4136600
2011-11-03,185.130005,187.779999,184.020004,187.300003,156.243332,4953500
2011-11-04,186.270004,187.139999,184.740005,186.380005,155.475891,3237600
2011-11-07,186.220001,187.729996,184.750000,187.320007,156.260040,3530800
2011-11-08,187.479996,187.880005,185.509995,187.250000,156.829544,4330600
2011-11-09,184.199997,185.240005,181.160004,182.240005,152.633484,5494800
2011-11-10,183.580002,184.770004,181.869995,183.350006,153.563141,3881600
2011-11-11,185.270004,187.830002,185.139999,187.380005,156.938431,3665300
2011-11-14,189.169998,189.839996,186.850006,187.350006,156.913345,6038600
2011-11-15,187.490005,189.970001,185.639999,188.750000,158.085846,4585300
2011-11-16,187.820007,189.899994,186.300003,186.619995,156.301895,4616800
2011-11-17,186.809998,188.830002,183.389999,185.729996,155.556473,5840500
2011-11-18,186.710007,186.970001,184.660004,185.240005,155.146088,4440900
2011-11-21,183.369995,183.960007,180.000000,181.479996,151.996902,5145100
2011-11-22,182.220001,182.979996,180.289993,181.309998,151.854568,4178600
2011-11-23,180.669998,181.490005,177.520004,177.949997,149.040436,4800900
2011-11-25,178.009995,179.559998,177.059998,177.059998,148.294998,2232800
2011-11-28,182.710007,182.929993,180.669998,182.210007,152.608337,4524200
2011-11-29,182.020004,183.309998,180.839996,180.940002,151.544647,3661600
2011-11-30,184.570007,188.350006,184.210007,188.000000,157.457718,7836800
2011-12-01,187.009995,189.990005,186.770004,189.449997,158.672119,4858800
2011-12-02,189.919998,191.330002,189.449997,189.660004,158.848007,4962200
2011-12-05,191.179993,193.610001,190.380005,190.839996,159.836288,5699400
2011-12-06,190.649994,193.529999,190.320007,192.940002,161.595154,4144900
2011-12-07,191.990005,194.899994,191.279999,194.050003,162.524811,5081700
2011-12-08,192.479996,193.800003,191.070007,191.580002,160.456100,4369000
2011-12-09,192.910004,194.869995,192.399994,194.559998,162.951950,4847900
2011-12-12,193.639999,193.899994,191.220001,192.179993,160.958633,3796100
2011-12-13,193.460007,194.300003,190.639999,191.149994,160.095932,5008400
2011-12-14,189.839996,190.279999,188.000000,188.720001,158.060745,5057700
2011-12-15,190.479996,191.199997,186.889999,187.479996,157.022171,4474500
2011-12-16,188.009995,188.009995,181.910004,183.570007,153.747437,11849400
2011-12-19,184.509995,184.690002,182.250000,182.889999,153.177856,5039900
2011-12-20,185.500000,187.330002,184.759995,187.240005,156.821213,4740100
2011-12-21,183.220001,183.500000,179.039993,181.470001,151.988571,9282500
2011-12-22,182.710007,182.800003,181.000000,182.039993,152.465973,5052000
2011-12-23,183.110001,184.850006,181.889999,184.750000,154.735733,3052300
2011-12-27,184.970001,185.850006,184.389999,184.949997,154.903229,2775200
2011-12-28,185.190002,185.399994,183.339996,183.990005,154.099182,2872000
2011-12-29,184.070007,186.229996,184.009995,186.179993,155.933350,2941600
2011-12-30,186.330002,186.479996,183.850006,183.880005,154.007004,3530900
2012-01-03,186.729996,188.710007,186.000000,186.300003,156.033936,5646000
2012-01-04,185.570007,186.330002,184.940002,185.539993,155.397339,4346700
2012-01-05,184.809998,185.029999,183.100006,184.660004,154.660309,4463100
2012-01-06,184.389999,184.479996,182.309998,182.539993,152.884689,4897100
2012-01-09,182.199997,182.270004,180.270004,181.589996,152.089050,5201200
2012-01-10,183.229996,183.720001,181.199997,181.309998,151.854568,5161000
2012-01-11,180.729996,182.809998,180.500000,182.320007,152.700546,4110800
2012-01-12,181.860001,181.910004,178.380005,180.550003,151.218033,6881000
2012-01-13,179.479996,179.610001,177.350006,179.160004,150.053864,5279200
2012-01-17,180.360001,182.000000,179.320007,180.000000,150.757370,6003400
2012-01-18,179.830002,181.600006,179.500000,181.070007,151.653549,4600600
2012-01-19,181.789993,182.360001,180.350006,180.520004,151.192886,8567200
2012-01-20,185.770004,188.970001,184.750000,188.520004,157.893219,12849700
2012-01-23,187.910004,190.520004,187.669998,189.979996,159.116058,5751700
2012-01-24,188.630005,192.300003,188.520004,191.929993,160.749237,5345700
2012-01-25,191.330002,192.240005,189.610001,191.729996,160.581696,4359700
2012-01-26,191.789993,192.789993,190.470001,190.979996,159.953552,4004700
2012-01-27,190.009995,191.770004,189.809998,190.460007,159.518066,3360400
2012-01-30,189.389999,192.729996,188.220001,192.500000,161.226624,4359000
2012-01-31,193.089996,193.100006,191.000000,192.600006,161.310394,4826800
2012-02-01,193.210007,194.809998,192.410004,192.619995,161.327148,5088800
2012-02-02,192.720001,193.330002,191.330002,191.529999,160.414200,3907300
2012-02-03,192.929993,194.130005,192.539993,193.639999,162.181427,4521700
2012-02-06,192.479996,193.759995,192.000000,192.820007,161.494690,3639800
2012-02-07,192.449997,194.139999,191.970001,193.350006,161.938583,3433000
2012-02-08,192.779999,193.580002,191.729996,192.949997,162.232819,3803800
2012-02-09,193.029999,194.460007,192.550003,193.130005,162.384155,3876400
2012-02-10,191.759995,192.429993,191.279999,192.419998,161.787201,3391100
2012-02-13,193.309998,193.690002,191.740005,192.619995,161.955353,2458800
2012-02-14,191.759995,192.600006,190.830002,192.220001,161.619034,3398100
2012-02-15,192.309998,193.440002,191.259995,192.250000,161.644287,4020900
2012-02-16,192.610001,193.250000,192.000000,193.020004,162.291702,3525500
2012-02-17,193.710007,193.860001,192.300003,193.419998,162.627991,3746500
2012-02-21,193.729996,194.240005,192.460007,193.389999,162.602798,3293600
2012-02-22,193.029999,194.740005,192.750000,193.869995,163.006348,3275800
2012-02-23,193.869995,199.229996,193.279999,197.610001,166.150925,8032700
2012-02-24,198.380005,198.559998,196.610001,197.759995,166.277100,3353200
2012-02-27,196.779999,198.710007,196.100006,197.529999,166.083694,3758400
2012-02-28,197.750000,198.960007,197.429993,197.979996,166.462051,3167400
2012-02-29,197.860001,199.169998,196.449997,196.729996,165.411057,5117100
2012-03-01,197.229996,198.470001,196.929993,197.529999,166.083694,3560300
2012-03-02,197.100006,198.889999,197.059998,198.809998,167.159943,3727400
2012-03-05,198.360001,201.190002,198.300003,200.660004,168.715439,6938000
2012-03-06,199.139999,199.639999,196.809998,197.259995,165.856674,5214700
2012-03-07,198.089996,198.570007,197.309998,197.770004,166.285477,3346900
2012-03-08,199.240005,199.990005,198.649994,199.809998,168.000717,3145800
2012-03-09,199.979996,201.100006,199.720001,200.619995,168.681778,3178200
2012-03-12,200.929993,201.570007,200.229996,201.000000,169.001266,3119700
2012-03-13,201.720001,203.899994,201.610001,203.779999,171.338684,4866000
2012-03-14,203.779999,205.149994,203.639999,204.720001,172.129089,4602300
2012-03-15,204.940002,206.179993,204.740005,206.000000,173.205292,3621100
2012-03-16,207.029999,207.520004,206.009995,206.009995,173.213669,9637000
2012-03-19,205.710007,206.529999,204.500000,205.720001,172.969864,3763200
2012-03-20,204.740005,205.000000,203.699997,204.250000,171.733887,3695100
2012-03-21,204.320007,205.770004,204.300003,204.690002,172.103867,3329900
2012-03-22,204.000000,205.990005,203.960007,205.490005,172.776474,3307800
2012-03-23,205.889999,205.960007,204.559998,205.479996,172.768082,3036200
2012-03-26,206.449997,207.919998,206.320007,207.770004,174.693542,3418200
2012-03-27,208.460007,208.660004,207.000000,207.179993,174.197449,2704500
2012-03-28,207.440002,208.690002,206.270004,207.289993,174.289932,3265700
2012-03-29,206.089996,208.500000,206.020004,208.270004,175.113953,3403700
2012-03-30,208.740005,209.119995,208.009995,208.649994,175.433411,3215200
2012-04-02,208.960007,209.690002,208.089996,209.470001,176.122894,3387900
2012-04-03,209.309998,210.690002,208.539993,209.500000,176.148117,4091500
2012-04-04,206.220001,206.979996,205.190002,206.050003,173.247314,4404000
2012-04-05,205.149994,205.679993,204.460007,205.470001,172.759674,3809000
2012-04-09,204.399994,206.169998,203.369995,204.940002,172.314056,3326900
2012-04-10,204.940002,205.740005,202.169998,202.330002,170.119537,4132900
2012-04-11,203.990005,204.320007,202.460007,202.580002,170.329773,3366200
2012-04-12,202.800003,205.559998,202.639999,205.320007,172.633560,2929600
2012-04-13,204.320007,204.649994,202.800003,202.800003,170.514725,3767000
2012-04-16,204.740005,205.970001,202.720001,202.720001,170.447495,3826600
2012-04-17,204.570007,207.639999,204.149994,207.449997,174.424454,6065500
2012-04-18,202.429993,204.070007,200.000000,200.130005,168.269791,10153500
2012-04-19,200.029999,201.259995,197.520004,199.509995,167.748474,5762900
2012-04-20,199.830002,200.119995,199.089996,199.600006,167.824188,4758200
2012-04-23,197.889999,199.100006,196.789993,198.619995,167.000168,3618800
2012-04-24,199.059998,202.479996,198.869995,200.000000,168.160461,5626300
2012-04-25,202.020004,203.690002,201.800003,203.570007,171.162186,4003400
2012-04-26,203.399994,206.210007,203.399994,205.580002,172.852188,3302700
2012-04-27,206.470001,208.169998,205.910004,206.809998,173.886337,3496900
2012-04-30,206.710007,207.960007,206.320007,207.080002,174.113373,2773200
2012-05-01,207.179993,208.929993,206.710007,208.000000,174.886917,2715900
2012-05-02,206.970001,208.270004,206.910004,208.059998,174.937332,2360300
2012-05-03,208.270004,208.919998,206.550003,207.240005,174.247910,2826600
2012-05-04,206.470001,207.110001,204.399994,204.990005,172.356094,4023600
2012-05-07,203.960007,204.770004,202.899994,203.750000,171.313492,3373400
2012-05-08,202.440002,203.059998,199.720001,201.479996,170.114563,3881500
2012-05-09,199.990005,203.000000,199.059998,201.229996,169.903488,3742500
2012-05-10,201.000000,203.250000,200.020004,200.600006,169.371582,3830500
2012-05-11,199.960007,202.119995,199.949997,201.169998,169.852844,2391500
2012-05-14,199.919998,200.710007,198.559998,199.440002,168.392136,3029200
2012-05-15,199.440002,201.470001,198.759995,199.039993,168.054413,2987400
2012-05-16,199.419998,201.350006,198.179993,199.729996,168.636993,5001000
2012-05-17,199.669998,200.789993,197.639999,197.889999,167.083435,5626300
2012-05-18,198.779999,198.779999,195.160004,195.880005,165.386368,5737100
2012-05-21,195.979996,197.929993,194.630005,197.759995,166.973663,3831700
2012-05-22,198.039993,198.259995,196.059998,196.820007,166.180023,3567100
2012-05-23,195.529999,196.490005,193.199997,196.119995,165.588959,4100000
2012-05-24,195.990005,196.279999,194.000000,196.089996,165.563629,3569300
2012-05-25,195.110001,196.000000,194.000000,194.300003,164.052353,2901900
2012-05-29,195.220001,198.080002,195.220001,196.460007,165.876038,3618500
2012-05-30,194.800003,195.470001,193.770004,194.529999,164.246490,3602500
2012-05-31,194.100006,194.929993,192.000000,192.899994,162.870209,9287500
2012-06-01,190.119995,191.720001,188.600006,189.080002,159.644913,5206400
2012-06-04,188.339996,189.380005,187.000000,188.539993,159.188965,4624500
2012-06-05,187.919998,189.850006,187.559998,189.199997,159.746231,3556500
2012-06-06,190.779999,194.000000,190.020004,193.990005,163.790543,3641300
2012-06-07,195.279999,195.830002,193.940002,194.440002,164.170517,3701100
2012-06-08,193.710007,195.139999,192.699997,195.139999,164.761566,2479200
2012-06-11,196.600006,196.699997,192.369995,192.509995,162.540939,3273300
2012-06-12,192.139999,194.669998,192.139999,194.550003,164.263428,3023700
2012-06-13,194.360001,195.190002,192.350006,193.100006,163.039124,3247700
2012-06-14,193.000000,195.830002,192.740005,195.100006,164.727753,3585000
2012-06-15,196.080002,199.270004,195.399994,199.100006,168.105042,6389000
2012-06-18,197.570007,199.639999,197.169998,198.289993,167.421143,3378900
2012-06-19,198.830002,199.990005,198.800003,198.929993,167.961533,3297600
2012-06-20,198.699997,199.740005,197.500000,198.779999,167.834885,3378200
2012-06-21,199.070007,199.449997,193.190002,193.389999,163.283966,4316600
2012-06-22,193.869995,194.880005,193.220001,193.699997,163.545731,8823000
2012-06-25,192.479996,193.389999,191.679993,192.860001,162.836502,3211600
2012-06-26,193.539993,193.679993,190.750000,191.949997,162.068130,3435900
2012-06-27,192.139999,193.699997,190.899994,193.000000,162.954666,2762700
2012-06-28,191.229996,192.080002,188.899994,191.399994,161.603745,3967300
2012-06-29,194.550003,195.809998,192.410004,195.580002,165.133072,5259600
2012-07-02,196.360001,197.199997,194.850006,195.830002,165.344116,2827000
2012-07-03,195.460007,196.339996,194.910004,195.929993,165.428543,1450400
2012-07-05,194.880005,196.850006,193.630005,195.289993,164.888168,2690200
2012-07-06,193.919998,193.940002,189.740005,191.410004,161.612198,4952900
2012-07-09,190.759995,191.000000,188.050003,189.669998,160.143127,3988100
2012-07-10,190.300003,191.139999,185.600006,186.259995,157.263916,4690300
2012-07-11,186.220001,187.360001,183.509995,185.250000,156.411179,5456100
2012-07-12,184.250000,184.389999,181.850006,183.089996,154.587448,4931300
2012-07-13,183.460007,186.330002,183.029999,186.009995,157.052841,3933000
2012-07-16,185.580002,186.100006,184.580002,184.789993,156.022751,3144400
2012-07-17,185.729996,186.289993,183.199997,183.649994,155.060257,5158600
2012-07-18,184.149994,188.589996,183.550003,188.250000,158.944107,8019500
2012-07-19,193.399994,196.850006,192.970001,195.339996,164.930405,10395400
2012-07-20,194.089996,194.899994,192.169998,192.449997,162.490326,4789700
2012-07-23,189.779999,191.300003,188.199997,190.830002,161.122513,3904500
2012-07-24,190.919998,191.320007,188.559998,190.339996,160.708786,3597100
2012-07-25,190.309998,192.770004,189.320007,191.080002,161.333588,3833800
2012-07-26,193.490005,194.949997,192.570007,193.949997,163.756790,3282900
2012-07-27,195.100006,197.410004,193.949997,196.389999,165.816925,4177300
2012-07-30,196.320007,197.839996,195.919998,196.679993,166.061783,2787000
2012-07-31,196.500000,197.580002,195.880005,195.979996,165.470764,3507000
2012-08-01,196.960007,197.850006,194.720001,195.179993,164.795288,2559300
2012-08-02,194.160004,196.600006,193.020004,194.449997,164.178955,2812600
2012-08-03,196.479996,198.949997,196.160004,198.520004,167.615341,3278100
2012-08-06,198.759995,199.940002,198.520004,198.759995,167.817978,2337800
2012-08-07,199.429993,200.880005,198.800003,199.929993,168.805832,3209400
2012-08-08,198.270004,199.690002,198.160004,199.029999,168.763428,2068300
2012-08-09,198.619995,199.460007,197.889999,198.419998,168.246231,2160100
2012-08-10,197.869995,199.369995,197.240005,199.289993,168.983902,2600500
2012-08-13,198.880005,199.979996,197.789993,199.009995,168.746490,2418300
2012-08-14,198.880005,199.330002,197.720001,198.289993,168.135971,2562300
2012-08-15,198.899994,199.330002,197.919998,198.399994,168.229279,2111800
2012-08-16,198.770004,201.320007,198.119995,200.839996,170.298157,2729500
2012-08-17,201.080002,202.000000,200.660004,201.220001,170.620422,2551800
2012-08-20,200.690002,201.130005,200.029999,200.500000,170.009918,2336000
2012-08-21,200.990005,201.000000,198.369995,198.649994,168.441254,3111300
2012-08-22,198.639999,198.649994,196.899994,197.250000,167.254135,3296100
2012-08-23,197.039993,197.369995,195.440002,195.699997,165.939835,2757400
2012-08-24,194.960007,198.110001,194.199997,197.770004,167.695023,2639500
2012-08-27,197.960007,198.300003,195.610001,195.690002,165.931381,2498800
2012-08-28,195.559998,196.110001,194.500000,194.869995,165.236023,2539200
2012-08-29,195.130005,196.039993,194.899994,195.080002,165.414154,2141400
2012-08-30,194.770004,195.470001,193.179993,193.369995,163.964157,2740900
2012-08-31,194.309998,195.949997,193.460007,194.850006,165.219147,3193300
2012-09-04,196.610001,197.169998,193.250000,194.539993,164.956253,4514400
2012-09-05,194.410004,195.850006,193.889999,195.039993,165.380234,3312500
2012-09-06,196.259995,199.460007,196.110001,199.100006,168.822754,3931700
2012-09-07,199.119995,199.500000,198.080002,199.500000,169.161972,3413700
2012-09-10,199.389999,201.820007,198.729996,200.949997,170.391464,4208000
2012-09-11,200.550003,203.460007,200.509995,203.270004,172.358673,3910600
2012-09-12,203.520004,204.649994,202.960007,203.770004,172.782623,3284000
2012-09-13,204.380005,206.809998,203.460007,206.360001,174.978729,3879600
2012-09-14,206.240005,207.649994,206.050003,206.809998,175.360352,4057100
2012-09-17,205.550003,207.990005,205.550003,207.149994,175.648651,3275100
2012-09-18,206.880005,207.880005,206.479996,207.070007,175.580795,2476100
2012-09-19,207.550003,207.570007,206.009995,206.429993,175.038132,2605600
2012-09-20,205.850006,206.990005,205.300003,206.179993,174.826157,3739100
2012-09-21,207.360001,207.940002,205.919998,205.979996,174.656601,12771500
2012-09-24,205.020004,206.059998,204.899994,205.289993,174.071487,3511100
2012-09-25,205.600006,207.320007,204.949997,204.979996,173.808640,3345200
2012-09-26,205.050003,205.979996,203.899994,204.000000,172.977707,3423300
2012-09-27,204.369995,206.899994,204.139999,205.910004,174.597198,2771900
2012-09-28,205.660004,208.320007,205.309998,207.449997,175.903015,4910900
2012-10-01,208.009995,211.750000,207.940002,210.470001,178.463776,5456900
2012-10-02,210.960007,211.470001,208.500000,209.839996,177.929581,3321000
2012-10-03,209.940002,211.300003,209.300003,210.509995,178.497681,3192300
2012-10-04,210.279999,210.970001,208.529999,210.389999,178.395920,2957500
2012-10-05,211.149994,211.789993,210.059998,210.589996,178.565521,2858400
2012-10-08,210.020004,210.639999,209.210007,209.820007,177.912613,1982600
2012-10-09,209.949997,210.740005,207.699997,207.990005,176.360901,3580400
2012-10-10,207.820007,208.229996,205.050003,205.820007,174.520920,4024500
2012-10-11,206.570007,207.270004,205.630005,205.759995,174.469986,2910000
2012-10-12,205.639999,207.960007,205.559998,207.800003,176.199799,2712000
2012-10-15,208.880005,209.399994,207.820007,208.929993,177.157974,3060900
2012-10-16,209.940002,211.000000,209.470001,211.000000,178.913208,5632100
2012-10-17,201.210007,203.410004,198.550003,200.630005,170.120132,12673900
2012-10-18,199.910004,200.139999,194.070007,194.960007,165.312424,9295900
2012-10-19,195.289993,196.080002,193.179993,193.360001,163.955688,6620300
2012-10-22,193.710007,194.679993,192.440002,194.399994,164.837509,4402500
2012-10-23,193.529999,194.000000,190.940002,191.250000,162.166580,4427400
2012-10-24,192.440002,193.289993,190.559998,190.720001,161.717178,3738000
2012-10-25,191.410004,192.440002,190.710007,191.600006,162.463303,3249600
2012-10-26,191.490005,193.869995,191.470001,193.270004,163.879349,4006500
2012-10-31,194.800003,196.410004,193.630005,194.529999,164.947739,6052300
2012-11-01,194.679993,197.889999,194.550003,197.149994,167.169342,3758800
2012-11-02,197.529999,198.000000,193.289993,193.429993,164.015030,4260100
2012-11-05,192.360001,194.970001,192.009995,194.139999,164.617081,2736200
2012-11-06,195.259995,196.750000,194.679993,195.070007,165.405624,3281000
2012-11-07,193.360001,193.679993,191.160004,191.160004,162.799591,4746200
2012-11-08,191.399994,191.809998,190.089996,190.100006,161.896896,3542200
2012-11-09,189.850006,191.639999,188.880005,189.639999,161.505112,3671600
2012-11-12,190.029999,190.770004,187.410004,189.250000,161.173019,3067400
2012-11-13,188.389999,190.880005,188.250000,188.320007,160.380981,3406700
2012-11-14,189.139999,189.270004,185.279999,185.509995,157.987854,4404400
2012-11-15,185.830002,187.199997,184.779999,185.850006,158.277405,3411700
2012-11-16,186.330002,187.559998,185.100006,186.940002,159.205688,4660800
2012-11-19,188.619995,190.389999,188.300003,190.350006,162.109802,3588900
2012-11-20,189.880005,190.110001,188.250000,189.199997,161.130417,3170200
2012-11-21,189.300003,190.889999,188.949997,190.289993,162.058701,5189600
2012-11-23,191.000000,193.490005,190.800003,193.490005,164.783951,3877600
2012-11-26,192.449997,193.369995,191.770004,192.880005,164.264450,5210300
2012-11-27,192.080002,193.050003,191.000000,191.229996,162.859222,3290900
2012-11-28,190.979996,192.039993,189.270004,191.979996,163.497955,3603600
2012-11-29,192.750000,192.899994,190.199997,191.529999,163.114700,4077900
2012-11-30,191.750000,192.000000,189.500000,190.070007,161.871353,4936400
2012-12-03,190.759995,191.300003,188.360001,189.479996,161.368866,3349600
2012-12-04,189.710007,190.750000,189.020004,189.360001,161.266663,3990700
2012-12-05,189.009995,189.460007,186.940002,188.649994,160.662003,4202100
2012-12-06,189.169998,190.179993,188.410004,189.699997,161.556213,3216600
2012-12-07,190.139999,192.199997,190.110001,191.949997,163.472427,4091300
2012-12-10,192.169998,193.539993,191.649994,192.619995,164.043015,3438500
2012-12-11,193.179993,194.800003,193.149994,194.199997,165.388596,4144000
2012-12-12,194.600006,194.750000,192.460007,192.949997,164.324051,4241900
2012-12-13,192.179993,193.050003,191.369995,191.990005,163.506516,3623200
2012-12-14,191.690002,193.399994,191.259995,191.759995,163.310593,3826900
2012-12-17,191.759995,193.910004,191.759995,193.619995,164.894669,3792400
2012-12-18,193.850006,195.919998,193.839996,195.690002,166.657547,4125900
2012-12-19,195.460007,196.449997,195.000000,195.080002,166.138077,4270500
2012-12-20,194.470001,194.949997,193.160004,194.770004,165.874054,4184500
2012-12-21,193.100006,194.500000,191.570007,193.419998,164.724319,8225300
2012-12-24,193.050003,193.830002,192.020004,192.399994,163.855652,1631200
2012-12-26,192.210007,193.529999,190.949997,191.949997,163.472427,2776500
2012-12-27,191.529999,193.279999,190.699997,192.710007,164.119659,3967600
2012-12-28,191.110001,192.220001,189.830002,189.830002,161.666946,3536600
2012-12-31,189.229996,191.679993,188.839996,191.550003,163.131760,4684900
2013-01-02,194.089996,196.350006,193.800003,196.350006,167.219650,4234100
2013-01-03,195.669998,196.289993,194.440002,195.270004,166.299881,3644700
2013-01-04,194.190002,194.460007,192.779999,193.990005,165.209778,3380200
2013-01-07,193.399994,193.779999,192.339996,193.139999,164.485886,2862300
2013-01-08,192.919998,193.300003,191.600006,192.869995,164.255905,3026900
2013-01-09,193.479996,193.490005,191.649994,192.320007,163.787567,3212000
2013-01-10,192.649994,192.960007,191.279999,192.880005,164.264450,3608100
2013-01-11,194.149994,195.000000,192.899994,194.449997,165.601501,3880400
2013-01-14,192.820007,193.279999,191.750000,192.619995,164.043015,4172200
2013-01-15,191.309998,192.729996,190.389999,192.500000,163.940826,4172100
2013-01-16,192.000000,193.179993,191.350006,192.589996,164.017456,2962900
2013-01-17,193.850006,194.460007,193.240005,193.649994,164.920181,3881600
2013-01-18,194.029999,195.000000,193.800003,194.470001,165.618561,4559600
2013-01-22,194.360001,196.080002,194.009995,196.080002,166.989700,7172300
2013-01-23,203.500000,208.580002,203.360001,204.720001,174.347870,12530500
2013-01-24,203.910004,205.059998,203.080002,204.419998,174.092377,4447200
2013-01-25,204.449997,205.179993,204.130005,204.970001,174.560760,3358900
2013-01-28,204.850006,206.220001,204.289993,204.929993,174.526703,2823700
2013-01-29,204.339996,205.729996,203.639999,203.899994,173.649551,3617100
2013-01-30,203.690002,204.880005,203.190002,203.520004,173.325928,2998400
2013-01-31,203.320007,204.470001,202.960007,203.070007,172.942642,3091400
2013-02-01,204.649994,205.350006,203.839996,205.179993,174.739639,3370700
2013-02-04,204.190002,205.020004,203.570007,203.789993,173.555847,3188800
2013-02-05,204.309998,204.750000,202.509995,202.789993,172.704193,3636900
2013-02-06,200.389999,201.289993,199.559998,201.020004,171.917374,3624200
2013-02-07,200.619995,200.910004,198.679993,199.740005,170.822739,3076700
2013-02-08,199.970001,202.089996,199.679993,201.679993,172.481842,2893300
2013-02-11,200.979996,201.949997,199.750000,200.160004,171.181900,2944700
2013-02-12,200.009995,200.740005,199.020004,200.039993,171.079285,2461800
2013-02-13,200.649994,200.949997,199.570007,200.089996,171.122055,2169800
2013-02-14,199.729996,200.320007,199.259995,199.649994,170.745728,3294200
2013-02-15,199.979996,201.250000,199.820007,200.979996,171.883194,3627800
2013-02-19,200.600006,201.889999,200.220001,200.320007,171.318756,2998300
2013-02-20,200.619995,201.720001,198.860001,199.309998,170.454941,3715400
2013-02-21,198.630005,199.070007,198.110001,198.330002,169.616852,3922900
2013-02-22,199.229996,201.089996,198.839996,201.089996,171.977295,3107900
2013-02-25,201.669998,202.490005,197.509995,197.509995,168.915573,3844800
2013-02-26,198.630005,199.899994,197.839996,199.139999,170.309570,3391600
2013-02-27,198.889999,202.750000,198.600006,202.330002,173.037720,4185100
2013-02-28,202.179993,203.119995,200.789993,200.830002,171.754913,4689200
2013-03-01,200.649994,202.940002,199.360001,202.910004,173.533798,3308300
2013-03-04,202.589996,205.190002,202.550003,205.190002,175.483719,3693400
2013-03-05,205.860001,207.699997,205.690002,206.529999,176.629715,3807800
2013-03-06,207.029999,208.490005,206.660004,208.380005,178.211884,3594800
2013-03-07,208.289993,209.600006,208.240005,209.419998,179.101273,3884400
2013-03-08,209.850006,210.740005,209.429993,210.380005,179.922333,3700500
2013-03-11,210.039993,210.199997,209.039993,210.080002,179.665771,3049700
2013-03-12,209.399994,210.729996,209.089996,210.550003,180.067719,3591600
2013-03-13,210.199997,212.360001,209.770004,212.059998,181.359116,3355900
2013-03-14,212.149994,215.860001,212.149994,215.800003,184.557632,5505500
2013-03-15,215.380005,215.899994,213.410004,214.919998,183.805023,7930300
2013-03-18,212.899994,214.500000,212.639999,213.210007,182.342590,3006000
2013-03-19,214.130005,215.119995,211.830002,213.440002,182.539276,3198600
2013-03-20,214.759995,215.820007,214.300003,215.059998,183.924759,3019000
2013-03-21,212.960007,213.000000,210.110001,212.259995,181.530106,5830400
2013-03-22,212.210007,213.169998,211.619995,212.080002,181.376175,3031500
2013-03-25,212.539993,212.809998,210.050003,210.740005,180.230179,3242500
2013-03-26,211.770004,212.500000,211.500000,212.360001,181.615646,2300300
2013-03-27,210.960007,212.160004,210.100006,210.889999,180.358505,3223400
2013-03-28,209.830002,213.440002,209.740005,213.300003,182.419571,3749900
2013-04-01,212.800003,213.500000,211.250000,212.380005,181.632751,2144500
2013-04-02,212.919998,214.710007,211.570007,214.360001,183.326080,3116800
2013-04-03,214.320007,214.889999,212.630005,212.660004,181.872223,3128800
2013-04-04,212.770004,212.929993,210.039993,211.309998,180.717651,3709500
2013-04-05,209.100006,209.839996,206.339996,209.410004,179.092728,4148000
2013-04-08,209.070007,209.320007,207.330002,209.320007,179.015747,2351200
2013-04-09,209.559998,210.000000,208.610001,209.220001,178.930237,2577300
2013-04-10,211.860001,212.509995,210.470001,212.000000,181.307800,3524200
2013-04-11,211.500000,213.089996,210.850006,212.919998,182.094589,3655600
2013-04-12,210.789993,211.490005,209.779999,211.380005,180.777527,3165400
2013-04-15,210.440002,211.690002,209.259995,209.259995,178.964447,4218100
2013-04-16,210.839996,212.000000,209.199997,212.000000,181.307800,2859500
2013-04-17,210.529999,211.089996,209.500000,209.669998,179.315109,3269800
2013-04-18,210.110001,210.250000,206.149994,207.149994,177.159927,6502000
2013-04-19,195.740005,196.500000,189.759995,190.000000,162.492828,18847000
2013-04-22,191.149994,191.380005,187.679993,187.830002,160.636978,9845400
2013-04-23,189.270004,192.550003,188.610001,191.610001,163.869736,6296100
2013-04-24,192.160004,192.500000,191.089996,191.710007,163.955246,3693900
2013-04-25,192.690002,195.169998,192.320007,193.949997,165.870972,4650900
2013-04-26,194.160004,194.710007,193.250000,194.309998,166.178833,3490300
2013-04-29,194.779999,199.679993,194.649994,199.149994,170.318115,5932400
2013-04-30,199.130005,202.589996,197.350006,202.539993,173.217331,7539900
2013-05-01,201.869995,202.169998,199.199997,199.630005,170.728668,4899100
2013-05-02,200.119995,202.429993,199.750000,202.389999,173.089066,3945100
2013-05-03,203.940002,205.320007,203.750000,204.509995,174.902100,4492700
2013-05-06,203.789993,203.990005,201.520004,202.779999,173.422623,4826500
2013-05-07,202.809998,203.729996,201.649994,203.630005,174.149536,3451000
2013-05-08,202.940002,204.850006,202.509995,204.820007,175.988312,3601700
2013-05-09,204.690002,205.000000,202.720001,203.240005,174.630692,3542300
2013-05-10,203.369995,204.529999,202.820007,204.470001,175.687546,3279200
2013-05-13,204.179993,204.470001,202.220001,202.470001,173.969070,3648400
2013-05-14,202.089996,203.669998,202.080002,203.210007,174.604935,3699700
2013-05-15,202.250000,203.679993,202.039993,203.320007,174.699463,4028100
2013-05-16,204.000000,206.589996,204.000000,204.690002,175.876587,4507000
2013-05-17,205.250000,209.500000,204.990005,208.440002,179.098709,5704100
2013-05-20,208.020004,209.149994,207.419998,207.600006,178.376999,3614500
2013-05-21,207.240005,209.479996,207.000000,208.649994,179.279144,2982900
2013-05-22,208.500000,210.149994,206.119995,206.990005,177.852875,5186800
2013-05-23,205.479996,208.610001,205.130005,206.160004,177.139664,5179100
2013-05-24,204.690002,206.429993,204.419998,205.720001,176.761612,3295800
2013-05-28,207.440002,208.589996,207.160004,207.779999,178.531631,4011500
2013-05-29,206.220001,208.419998,206.039993,207.919998,178.651886,3439400
2013-05-30,206.970001,210.990005,206.970001,209.360001,179.889221,4399700
2013-05-31,208.589996,211.979996,208.020004,208.020004,178.737900,4949000
2013-06-03,208.250000,210.050003,207.330002,208.949997,179.536926,3322000
2013-06-04,208.600006,209.000000,205.080002,206.190002,177.165436,3598300
2013-06-05,205.160004,206.289993,202.399994,202.740005,174.201080,4215400
2013-06-06,203.000000,204.199997,201.470001,203.800003,175.111908,3679400
2013-06-07,204.850006,206.350006,204.110001,206.350006,177.302933,2953400
2013-06-10,206.970001,206.979996,204.899994,205.020004,176.160141,2652300
2013-06-11,203.169998,205.949997,202.509995,203.979996,175.266571,2814400
2013-06-12,204.589996,205.229996,200.509995,201.199997,172.877869,3409800
2013-06-13,201.009995,204.399994,200.339996,203.770004,175.086105,2899500
2013-06-14,203.970001,204.740005,201.809998,202.199997,173.737076,2804500
2013-06-17,203.440002,205.169998,202.550003,203.039993,174.458847,3219900
2013-06-18,203.020004,206.089996,202.869995,204.869995,176.031235,3277800
2013-06-19,204.440002,205.029999,201.929993,201.940002,173.513718,2846100
2013-06-20,200.669998,201.699997,197.279999,197.350006,169.569794,4514800
2013-06-21,198.500000,198.520004,193.539993,195.460007,167.945831,8914800
2013-06-24,193.990005,194.910004,191.339996,193.539993,166.296143,4356200
2013-06-25,195.309998,195.589996,193.149994,194.979996,167.533463,3846200
2013-06-26,195.970001,196.229996,194.500000,194.860001,167.430328,3320200
2013-06-27,196.050003,196.899994,195.289993,195.649994,168.109116,3514200
2013-06-28,191.729996,192.660004,188.410004,191.110001,164.208206,10055800
2013-07-01,192.149994,193.800003,191.119995,191.279999,164.354248,4442400
2013-07-02,190.779999,193.229996,190.259995,191.500000,164.543304,3657700
2013-07-03,190.979996,194.220001,190.509995,193.250000,166.046967,1872600
2013-07-05,194.490005,195.160004,192.350006,194.929993,167.490463,2405400
2013-07-08,195.600006,195.779999,194.610001,194.979996,167.533463,2947500
2013-07-09,191.880005,192.800003,190.779999,191.300003,164.371460,5204200
2013-07-10,191.509995,193.429993,191.270004,192.250000,165.187729,3892000
2013-07-11,193.779999,194.110001,192.610001,192.800003,165.660309,4177500
2013-07-12,193.070007,193.699997,191.589996,192.070007,165.033066,4494700
2013-07-15,192.419998,194.889999,191.679993,194.000000,166.691406,5674700
2013-07-16,194.039993,194.580002,192.679993,193.850006,166.562515,3745300
2013-07-17,194.720001,194.889999,193.029999,194.550003,167.163971,6868400
2013-07-18,198.270004,200.940002,195.990005,197.990005,170.119766,8393400
2013-07-19,197.910004,197.990005,193.240005,193.539993,166.296143,6997600
2013-07-22,193.399994,195.789993,193.279999,194.089996,166.768707,3398000
2013-07-23,194.210007,196.429993,194.100006,194.979996,167.533463,2863800
2013-07-24,195.949997,197.300003,195.860001,196.610001,168.933990,2957900
2013-07-25,196.300003,197.830002,195.660004,197.220001,169.458130,3014300
2013-07-26,196.589996,197.369995,195.000000,197.350006,169.569794,2485100
2013-07-29,196.830002,197.190002,195.529999,196.210007,168.590286,2113700
2013-07-30,196.990005,197.830002,195.809998,196.009995,168.418442,2663200
2013-07-31,194.490005,196.910004,194.490005,195.039993,167.584976,3810000
2013-08-01,196.649994,197.169998,195.410004,195.809998,168.246582,2877700
2013-08-02,195.500000,195.500000,193.220001,195.160004,167.688095,3874000
2013-08-05,195.160004,195.880005,194.350006,195.500000,167.980209,2490900
2013-08-06,192.259995,192.509995,190.270004,190.990005,164.105087,5938500
2013-08-07,189.600006,189.929993,188.050003,188.559998,162.827057,3901700
2013-08-08,189.449997,189.869995,186.789993,187.929993,162.283066,4547600
2013-08-09,188.000000,189.160004,187.000000,187.820007,162.188095,3249600
2013-08-12,186.970001,189.559998,186.889999,189.089996,163.284744,3026500
2013-08-13,189.539993,189.990005,187.559998,188.419998,162.706161,3542900
2013-08-14,188.580002,188.929993,187.300003,187.529999,161.937653,2892300
2013-08-15,186.229996,187.000000,185.449997,185.789993,160.435074,3692400
2013-08-16,185.539993,186.460007,185.339996,185.339996,160.046494,3426400
2013-08-19,185.300003,186.500000,183.979996,184.229996,159.087982,3248900
2013-08-20,184.369995,185.630005,183.169998,184.559998,159.372955,3117800
2013-08-21,184.669998,186.570007,184.279999,184.860001,159.632019,3551000
2013-08-22,185.649994,186.250000,184.250000,185.190002,159.916977,2354300
2013-08-23,185.339996,185.740005,184.570007,185.419998,160.115601,2292700
2013-08-26,185.270004,187.000000,184.679993,184.740005,159.528397,2170400
2013-08-27,183.630005,184.500000,182.570007,182.740005,157.801315,3190700
2013-08-28,182.679993,183.470001,181.100006,182.160004,157.300476,3979200
2013-08-29,181.960007,183.699997,181.440002,182.639999,157.715012,2980900
2013-08-30,182.750000,182.990005,181.509995,182.270004,157.395447,2731000
2013-09-03,183.630005,184.320007,182.509995,183.960007,158.854828,3487200
2013-09-04,183.580002,184.190002,182.309998,183.130005,158.138107,2597900
2013-09-05,183.350006,185.000000,183.070007,184.149994,159.018906,2867600
2013-09-06,184.649994,184.990005,182.649994,183.029999,158.051743,2903500
2013-09-09,183.679993,185.490005,183.309998,184.979996,159.735641,3017200
2013-09-10,187.199997,187.649994,186.369995,186.600006,161.134537,3149600
2013-09-11,186.830002,190.869995,186.820007,190.699997,164.675018,4962900
2013-09-12,190.960007,191.320007,189.850006,190.729996,164.700912,3354800
2013-09-13,191.210007,193.100006,191.000000,192.169998,165.944382,3710400
2013-09-16,193.699997,194.809998,192.610001,193.149994,166.790680,3902400
2013-09-17,193.419998,194.149994,191.830002,192.160004,165.935776,2930900
2013-09-18,192.600006,194.889999,192.000000,194.419998,167.887314,3841800
2013-09-19,194.179993,194.889999,193.220001,193.389999,166.997910,3178100
2013-09-20,193.960007,194.429993,190.020004,190.020004,164.087830,8525900
2013-09-23,190.059998,192.410004,189.330002,190.990005,164.925430,3340800
2013-09-24,190.929993,191.559998,189.660004,189.970001,164.044647,3085300
2013-09-25,190.139999,190.619995,188.500000,189.470001,163.612839,2654500
2013-09-26,190.100006,191.759995,189.460007,190.220001,164.260529,2093600
2013-09-27,188.869995,188.940002,186.449997,186.919998,161.410858,3905500
2013-09-30,185.559998,186.740005,184.339996,185.179993,159.908295,3978200
2013-10-01,185.339996,186.649994,184.649994,186.380005,160.944580,2681200
2013-10-02,185.539993,186.309998,184.410004,184.960007,159.718353,3617100
2013-10-03,184.699997,184.960007,183.000000,183.860001,158.768478,3211800
2013-10-04,184.169998,185.130005,183.580002,184.100006,158.975708,2863600
2013-10-07,181.850006,183.309998,181.850006,182.009995,157.170959,3966400
2013-10-08,181.889999,181.990005,178.710007,178.720001,154.329956,5578300
2013-10-09,179.369995,181.669998,179.100006,181.320007,156.575104,4423500
2013-10-10,183.169998,184.770004,182.360001,184.770004,159.554276,3658900
2013-10-11,185.250000,186.229996,184.119995,186.160004,160.754578,3232600
2013-10-14,185.410004,186.990005,184.419998,186.970001,161.454056,2663100
2013-10-15,185.740005,185.940002,184.220001,184.660004,159.459305,3365100
2013-10-16,185.419998,186.729996,184.990005,186.729996,161.246796,6718000
2013-10-17,173.839996,177.000000,172.570007,174.830002,150.970810,22368900
2013-10-18,174.800003,175.000000,173.250000,173.779999,150.064087,10548000
2013-10-21,174.419998,174.750000,172.630005,172.860001,149.269653,7098700
2013-10-22,173.350006,175.570007,172.949997,174.970001,151.091736,6977300
2013-10-23,175.089996,175.990005,174.399994,175.770004,151.782547,5409400
2013-10-24,176.429993,177.889999,176.250000,177.800003,153.535446,5533300
2013-10-25,178.429993,179.100006,176.259995,176.850006,152.715149,4842800
2013-10-28,177.039993,177.889999,176.199997,177.350006,153.146912,3712700
2013-10-29,177.619995,182.320007,177.500000,182.119995,157.265930,8904600
2013-10-30,181.690002,182.179993,179.860001,180.149994,155.564774,5273700
2013-10-31,179.649994,181.669998,179.039993,179.210007,154.753067,4318100
2013-11-01,179.809998,180.339996,178.880005,179.229996,154.770325,3644500
2013-11-04,179.899994,180.800003,179.339996,180.270004,155.668396,3483300
2013-11-05,179.539993,179.800003,177.710007,177.850006,153.578659,6096800
2013-11-06,177.910004,179.750000,177.779999,179.190002,155.566788,4560700
2013-11-07,179.600006,181.389999,179.600006,180.000000,156.270004,5219500
2013-11-08,178.830002,180.080002,177.350006,179.990005,156.261322,6275000
2013-11-11,180.190002,183.389999,180.039993,182.880005,158.770309,5222300
2013-11-12,182.529999,184.050003,182.259995,183.070007,158.935272,4258500
2013-11-13,182.270004,183.550003,181.589996,183.550003,159.351974,4704400
2013-11-14,180.479996,183.199997,179.660004,182.210007,158.188629,6321500
2013-11-15,182.380005,183.279999,181.160004,183.190002,159.039444,5176100
2013-11-18,183.520004,184.990005,183.270004,184.470001,160.150681,5344900
2013-11-19,184.630005,186.199997,184.149994,185.250000,160.827866,4577000
2013-11-20,185.220001,186.240005,184.649994,185.190002,160.775787,3645800
2013-11-21,185.539993,185.750000,183.410004,184.130005,159.855530,4459500
2013-11-22,183.500000,184.990005,179.919998,181.300003,157.398621,7610200
2013-11-25,180.250000,180.750000,177.820007,178.940002,155.349731,7161900
2013-11-26,178.669998,178.940002,177.309998,177.309998,153.934616,5756000
2013-11-27,177.830002,180.179993,177.820007,178.970001,155.375763,4596500
2013-11-29,179.210007,180.759995,179.000000,179.679993,155.992172,2870500
2013-12-02,179.460007,179.589996,177.119995,177.479996,154.082230,4560000
2013-12-03,177.000000,178.229996,175.639999,176.080002,152.866806,5864000
2013-12-04,175.369995,177.500000,175.160004,175.740005,152.571609,5267400
2013-12-05,176.149994,176.860001,175.279999,176.080002,152.866806,4384900
2013-12-06,176.699997,178.000000,176.009995,177.669998,154.247162,4739800
2013-12-09,177.990005,178.149994,176.830002,177.460007,154.064835,3796600
2013-12-10,176.899994,177.669998,176.059998,177.119995,153.769669,4127800
2013-12-11,177.000000,177.759995,175.100006,175.199997,152.102783,4090400
2013-12-12,175.059998,175.800003,173.300003,173.369995,150.514038,5671600
2013-12-13,173.520004,174.380005,172.729996,172.800003,150.019180,4184400
2013-12-16,173.220001,178.350006,172.729996,177.850006,154.403427,7517000
2013-12-17,177.360001,177.490005,175.119995,175.759995,152.588943,5471900
2013-12-18,176.449997,178.740005,174.850006,178.699997,155.141342,5697700
2013-12-19,177.880005,180.539993,177.880005,180.220001,156.460983,5927000
2013-12-20,180.119995,182.000000,180.020004,180.020004,156.287323,7653500
2013-12-23,181.050003,182.929993,180.610001,182.229996,158.206009,4079900
2013-12-24,181.960007,183.500000,181.910004,183.220001,159.065491,1613600
2013-12-26,183.559998,185.559998,183.509995,185.350006,160.914688,3325700
2013-12-27,185.839996,186.500000,184.559998,185.080002,160.680237,3381600
2013-12-30,185.320007,186.699997,184.669998,186.410004,161.834915,3018600
2013-12-31,186.490005,187.789993,186.300003,187.570007,162.842041,3619700
